# npn_get_layer_details works

    Code
      layers
    Output
      # A tibble: 86 x 5
         name                            title abstract dimension.name dimension.range
         <chr>                           <chr> <chr>    <chr>          <chr>          
       1 si-x:30yr_avg_4k_bloom          Spri~ "This l~ elevation      1.0,2.0,3.0,4.~
       2 si-x:30yr_avg_4k_leaf           Spri~ "This l~ elevation      1.0,2.0,3.0,4.~
       3 gdd:30yr_avg_agdd               Dail~ "This l~ elevation      1.0,2.0,3.0,4.~
       4 gdd:30yr_avg_agdd_50f           Dail~ "This l~ elevation      1.0,2.0,3.0,4.~
       5 si-x:30yr_avg_six_bloom         Spri~ "This l~ elevation      1.0,2.0,3.0,4.~
       6 si-x:30yr_avg_six_leaf          Spri~ "This l~ elevation      1.0,2.0,3.0,4.~
       7 inca:EVIarea_Median_NAD83_02deg EVI ~ "These ~ <NA>           <NA>           
       8 gdd:agdd                        Dail~ "This l~ time           2016-01-01T00:~
       9 gdd:agdd_50f                    Dail~ "This l~ time           2016-01-01T00:~
      10 gdd:agdd_alaska                 Dail~ "This l~ time           2017-01-01T00:~
      # i 76 more rows
